%YAML 1.1
%TAG !u! tag:unity3d.com,2011:
--- !u!114 &11400000
MonoBehaviour:
  m_ObjectHideFlags: 0
  m_CorrespondingSourceObject: {fileID: 0}
  m_PrefabInstance: {fileID: 0}
  m_PrefabAsset: {fileID: 0}
  m_GameObject: {fileID: 0}
  m_Enabled: 1
  m_EditorHideFlags: 0
  m_Script: {fileID: 11500000, guid: e9620f8c34305754d8cc9a7e49e852d9, type: 3}
  m_Name: Wheel_en
  m_EditorClassIdentifier: 
  m_LocaleId:
    m_Code: en
  m_SharedData: {fileID: 11400000, guid: dfc17d0089aadc24fbc657f748f1d3b0, type: 2}
  m_Metadata:
    m_Items: []
  m_TableData:
  - m_Id: 55449939968
    m_Localized: Go!
    m_Metadata:
      m_Items: []
  - m_Id: 310602035200
    m_Localized: Stop!
    m_Metadata:
      m_Items: []
  - m_Id: 354042441728
    m_Localized: Wait...
    m_Metadata:
      m_Items: []
  - m_Id: 424099901440
    m_Localized: YOUR BID
    m_Metadata:
      m_Items: []
  - m_Id: 800471576576
    m_Localized: 'Winnings:'
    m_Metadata:
      m_Items: []
  - m_Id: 1033729404928
    m_Localized: How to play?
    m_Metadata:
      m_Items: []
  - m_Id: 1211228155904
    m_Localized: Welcome!
    m_Metadata:
      m_Items: []
  - m_Id: 1264638423040
    m_Localized: This is a classic game based on the principle of roulette. Your
      goal is to get the maximum winning rate!
    m_Metadata:
      m_Items: []
  - m_Id: 1299170127872
    m_Localized: Enter your bet amount and click the "Let's Go" button to spin the
      wheel!
    m_Metadata:
      m_Items: []
  - m_Id: 1343059324928
    m_Localized: Each cell contains a multiplier. The higher it is, the more you
      win!
    m_Metadata:
      m_Items: []
  - m_Id: 1384830398464
    m_Localized: You can always check the fairness of the generated outcomes. The
      betting history stores all data from completed games. The correct hashing can
      be checked in any online hash generator.
    m_Metadata:
      m_Items: []
  - m_Id: 1433199112192
    m_Localized: Good game!
    m_Metadata:
      m_Items: []
  references:
    version: 2
    RefIds: []
