%YAML 1.1
%TAG !u! tag:unity3d.com,2011:
--- !u!1 &3790152058756873291
GameObject:
  m_ObjectHideFlags: 0
  m_CorrespondingSourceObject: {fileID: 0}
  m_PrefabInstance: {fileID: 0}
  m_PrefabAsset: {fileID: 0}
  serializedVersion: 6
  m_Component:
  - component: {fileID: 294359344644347875}
  - component: {fileID: 6028395231322005215}
  - component: {fileID: 4798227313586930991}
  m_Layer: 0
  m_Name: ButtonImage
  m_TagString: Untagged
  m_Icon: {fileID: 0}
  m_NavMeshLayer: 0
  m_StaticEditorFlags: 0
  m_IsActive: 1
--- !u!224 &294359344644347875
RectTransform:
  m_ObjectHideFlags: 0
  m_CorrespondingSourceObject: {fileID: 0}
  m_PrefabInstance: {fileID: 0}
  m_PrefabAsset: {fileID: 0}
  m_GameObject: {fileID: 3790152058756873291}
  m_LocalRotation: {x: -0, y: -0, z: -0, w: 1}
  m_LocalPosition: {x: 0, y: 0, z: 0}
  m_LocalScale: {x: 1, y: 1, z: 1}
  m_ConstrainProportionsScale: 1
  m_Children: []
  m_Father: {fileID: 8688406193267826568}
  m_LocalEulerAnglesHint: {x: 0, y: 0, z: 0}
  m_AnchorMin: {x: 0.5, y: 0.5}
  m_AnchorMax: {x: 0.5, y: 0.5}
  m_AnchoredPosition: {x: 0, y: 0}
  m_SizeDelta: {x: 54, y: 114}
  m_Pivot: {x: 0.5, y: 0.5}
--- !u!222 &6028395231322005215
CanvasRenderer:
  m_ObjectHideFlags: 0
  m_CorrespondingSourceObject: {fileID: 0}
  m_PrefabInstance: {fileID: 0}
  m_PrefabAsset: {fileID: 0}
  m_GameObject: {fileID: 3790152058756873291}
  m_CullTransparentMesh: 1
--- !u!114 &4798227313586930991
MonoBehaviour:
  m_ObjectHideFlags: 0
  m_CorrespondingSourceObject: {fileID: 0}
  m_PrefabInstance: {fileID: 0}
  m_PrefabAsset: {fileID: 0}
  m_GameObject: {fileID: 3790152058756873291}
  m_Enabled: 1
  m_EditorHideFlags: 0
  m_Script: {fileID: 11500000, guid: fe87c0e1cc204ed48ad3b37840f39efc, type: 3}
  m_Name: 
  m_EditorClassIdentifier: 
  m_Material: {fileID: 0}
  m_Color: {r: 1, g: 1, b: 1, a: 1}
  m_RaycastTarget: 1
  m_RaycastPadding: {x: 0, y: 0, z: 0, w: 0}
  m_Maskable: 1
  m_OnCullStateChanged:
    m_PersistentCalls:
      m_Calls: []
  m_Sprite: {fileID: 21300000, guid: 5f062b2997e8e4a4fa52347006d4addd, type: 3}
  m_Type: 0
  m_PreserveAspect: 1
  m_FillCenter: 1
  m_FillMethod: 4
  m_FillAmount: 1
  m_FillClockwise: 1
  m_FillOrigin: 0
  m_UseSpriteMesh: 0
  m_PixelsPerUnitMultiplier: 1
--- !u!1001 &4355758973019710525
PrefabInstance:
  m_ObjectHideFlags: 0
  serializedVersion: 2
  m_Modification:
    serializedVersion: 3
    m_TransformParent: {fileID: 0}
    m_Modifications:
    - target: {fileID: 3215387555297035703, guid: 1fa1fada483f48a4182dff99ddb24a2b, type: 3}
      propertyPath: m_Name
      value: 3
      objectReference: {fileID: 0}
    - target: {fileID: 4963433888598145973, guid: 1fa1fada483f48a4182dff99ddb24a2b, type: 3}
      propertyPath: m_Pivot.x
      value: 0.5
      objectReference: {fileID: 0}
    - target: {fileID: 4963433888598145973, guid: 1fa1fada483f48a4182dff99ddb24a2b, type: 3}
      propertyPath: m_Pivot.y
      value: 0.5
      objectReference: {fileID: 0}
    - target: {fileID: 4963433888598145973, guid: 1fa1fada483f48a4182dff99ddb24a2b, type: 3}
      propertyPath: m_AnchorMax.x
      value: 0.5
      objectReference: {fileID: 0}
    - target: {fileID: 4963433888598145973, guid: 1fa1fada483f48a4182dff99ddb24a2b, type: 3}
      propertyPath: m_AnchorMax.y
      value: 0.5
      objectReference: {fileID: 0}
    - target: {fileID: 4963433888598145973, guid: 1fa1fada483f48a4182dff99ddb24a2b, type: 3}
      propertyPath: m_AnchorMin.x
      value: 0.5
      objectReference: {fileID: 0}
    - target: {fileID: 4963433888598145973, guid: 1fa1fada483f48a4182dff99ddb24a2b, type: 3}
      propertyPath: m_AnchorMin.y
      value: 0.5
      objectReference: {fileID: 0}
    - target: {fileID: 4963433888598145973, guid: 1fa1fada483f48a4182dff99ddb24a2b, type: 3}
      propertyPath: m_SizeDelta.x
      value: 82.5
      objectReference: {fileID: 0}
    - target: {fileID: 4963433888598145973, guid: 1fa1fada483f48a4182dff99ddb24a2b, type: 3}
      propertyPath: m_SizeDelta.y
      value: 85.5
      objectReference: {fileID: 0}
    - target: {fileID: 4963433888598145973, guid: 1fa1fada483f48a4182dff99ddb24a2b, type: 3}
      propertyPath: m_LocalPosition.x
      value: 0
      objectReference: {fileID: 0}
    - target: {fileID: 4963433888598145973, guid: 1fa1fada483f48a4182dff99ddb24a2b, type: 3}
      propertyPath: m_LocalPosition.y
      value: 0
      objectReference: {fileID: 0}
    - target: {fileID: 4963433888598145973, guid: 1fa1fada483f48a4182dff99ddb24a2b, type: 3}
      propertyPath: m_LocalPosition.z
      value: 0
      objectReference: {fileID: 0}
    - target: {fileID: 4963433888598145973, guid: 1fa1fada483f48a4182dff99ddb24a2b, type: 3}
      propertyPath: m_LocalRotation.w
      value: 1
      objectReference: {fileID: 0}
    - target: {fileID: 4963433888598145973, guid: 1fa1fada483f48a4182dff99ddb24a2b, type: 3}
      propertyPath: m_LocalRotation.x
      value: 0
      objectReference: {fileID: 0}
    - target: {fileID: 4963433888598145973, guid: 1fa1fada483f48a4182dff99ddb24a2b, type: 3}
      propertyPath: m_LocalRotation.y
      value: 0
      objectReference: {fileID: 0}
    - target: {fileID: 4963433888598145973, guid: 1fa1fada483f48a4182dff99ddb24a2b, type: 3}
      propertyPath: m_LocalRotation.z
      value: 0
      objectReference: {fileID: 0}
    - target: {fileID: 4963433888598145973, guid: 1fa1fada483f48a4182dff99ddb24a2b, type: 3}
      propertyPath: m_AnchoredPosition.x
      value: 0
      objectReference: {fileID: 0}
    - target: {fileID: 4963433888598145973, guid: 1fa1fada483f48a4182dff99ddb24a2b, type: 3}
      propertyPath: m_AnchoredPosition.y
      value: 0
      objectReference: {fileID: 0}
    - target: {fileID: 4963433888598145973, guid: 1fa1fada483f48a4182dff99ddb24a2b, type: 3}
      propertyPath: m_LocalEulerAnglesHint.x
      value: 0
      objectReference: {fileID: 0}
    - target: {fileID: 4963433888598145973, guid: 1fa1fada483f48a4182dff99ddb24a2b, type: 3}
      propertyPath: m_LocalEulerAnglesHint.y
      value: 0
      objectReference: {fileID: 0}
    - target: {fileID: 4963433888598145973, guid: 1fa1fada483f48a4182dff99ddb24a2b, type: 3}
      propertyPath: m_LocalEulerAnglesHint.z
      value: 0
      objectReference: {fileID: 0}
    m_RemovedComponents: []
    m_RemovedGameObjects:
    - {fileID: 3549660002484656809, guid: 1fa1fada483f48a4182dff99ddb24a2b, type: 3}
    m_AddedGameObjects:
    - targetCorrespondingSourceObject: {fileID: 4963433888598145973, guid: 1fa1fada483f48a4182dff99ddb24a2b, type: 3}
      insertIndex: -1
      addedObject: {fileID: 294359344644347875}
    m_AddedComponents: []
  m_SourcePrefab: {fileID: 100100000, guid: 1fa1fada483f48a4182dff99ddb24a2b, type: 3}
--- !u!224 &8688406193267826568 stripped
RectTransform:
  m_CorrespondingSourceObject: {fileID: 4963433888598145973, guid: 1fa1fada483f48a4182dff99ddb24a2b, type: 3}
  m_PrefabInstance: {fileID: 4355758973019710525}
  m_PrefabAsset: {fileID: 0}
