%YAML 1.1
%TAG !u! tag:unity3d.com,2011:
--- !u!1001 &2955787445269031251
PrefabInstance:
  m_ObjectHideFlags: 0
  serializedVersion: 2
  m_Modification:
    serializedVersion: 3
    m_TransformParent: {fileID: 0}
    m_Modifications:
    - target: {fileID: 48542486158069065, guid: e5222312bdc1e604fa54c10c33b13cc9, type: 3}
      propertyPath: m_Sprite
      value: 
      objectReference: {fileID: 21300000, guid: 652a4d4d681ea9141a71806049d83861, type: 3}
    - target: {fileID: 3885763253778575100, guid: e5222312bdc1e604fa54c10c33b13cc9, type: 3}
      propertyPath: m_Name
      value: Item5
      objectReference: {fileID: 0}
    - target: {fileID: 5555973367032930513, guid: e5222312bdc1e604fa54c10c33b13cc9, type: 3}
      propertyPath: m_Pivot.x
      value: 0.5
      objectReference: {fileID: 0}
    - target: {fileID: 5555973367032930513, guid: e5222312bdc1e604fa54c10c33b13cc9, type: 3}
      propertyPath: m_Pivot.y
      value: 0.5
      objectReference: {fileID: 0}
    - target: {fileID: 5555973367032930513, guid: e5222312bdc1e604fa54c10c33b13cc9, type: 3}
      propertyPath: m_AnchorMax.x
      value: 0.5
      objectReference: {fileID: 0}
    - target: {fileID: 5555973367032930513, guid: e5222312bdc1e604fa54c10c33b13cc9, type: 3}
      propertyPath: m_AnchorMax.y
      value: 0.5
      objectReference: {fileID: 0}
    - target: {fileID: 5555973367032930513, guid: e5222312bdc1e604fa54c10c33b13cc9, type: 3}
      propertyPath: m_AnchorMin.x
      value: 0.5
      objectReference: {fileID: 0}
    - target: {fileID: 5555973367032930513, guid: e5222312bdc1e604fa54c10c33b13cc9, type: 3}
      propertyPath: m_AnchorMin.y
      value: 0.5
      objectReference: {fileID: 0}
    - target: {fileID: 5555973367032930513, guid: e5222312bdc1e604fa54c10c33b13cc9, type: 3}
      propertyPath: m_SizeDelta.x
      value: 172
      objectReference: {fileID: 0}
    - target: {fileID: 5555973367032930513, guid: e5222312bdc1e604fa54c10c33b13cc9, type: 3}
      propertyPath: m_SizeDelta.y
      value: 133
      objectReference: {fileID: 0}
    - target: {fileID: 5555973367032930513, guid: e5222312bdc1e604fa54c10c33b13cc9, type: 3}
      propertyPath: m_LocalPosition.x
      value: 0
      objectReference: {fileID: 0}
    - target: {fileID: 5555973367032930513, guid: e5222312bdc1e604fa54c10c33b13cc9, type: 3}
      propertyPath: m_LocalPosition.y
      value: 0
      objectReference: {fileID: 0}
    - target: {fileID: 5555973367032930513, guid: e5222312bdc1e604fa54c10c33b13cc9, type: 3}
      propertyPath: m_LocalPosition.z
      value: 0
      objectReference: {fileID: 0}
    - target: {fileID: 5555973367032930513, guid: e5222312bdc1e604fa54c10c33b13cc9, type: 3}
      propertyPath: m_LocalRotation.w
      value: 1
      objectReference: {fileID: 0}
    - target: {fileID: 5555973367032930513, guid: e5222312bdc1e604fa54c10c33b13cc9, type: 3}
      propertyPath: m_LocalRotation.x
      value: -0
      objectReference: {fileID: 0}
    - target: {fileID: 5555973367032930513, guid: e5222312bdc1e604fa54c10c33b13cc9, type: 3}
      propertyPath: m_LocalRotation.y
      value: -0
      objectReference: {fileID: 0}
    - target: {fileID: 5555973367032930513, guid: e5222312bdc1e604fa54c10c33b13cc9, type: 3}
      propertyPath: m_LocalRotation.z
      value: -0
      objectReference: {fileID: 0}
    - target: {fileID: 5555973367032930513, guid: e5222312bdc1e604fa54c10c33b13cc9, type: 3}
      propertyPath: m_AnchoredPosition.x
      value: 0
      objectReference: {fileID: 0}
    - target: {fileID: 5555973367032930513, guid: e5222312bdc1e604fa54c10c33b13cc9, type: 3}
      propertyPath: m_AnchoredPosition.y
      value: 0
      objectReference: {fileID: 0}
    - target: {fileID: 5555973367032930513, guid: e5222312bdc1e604fa54c10c33b13cc9, type: 3}
      propertyPath: m_LocalEulerAnglesHint.x
      value: 0
      objectReference: {fileID: 0}
    - target: {fileID: 5555973367032930513, guid: e5222312bdc1e604fa54c10c33b13cc9, type: 3}
      propertyPath: m_LocalEulerAnglesHint.y
      value: 0
      objectReference: {fileID: 0}
    - target: {fileID: 5555973367032930513, guid: e5222312bdc1e604fa54c10c33b13cc9, type: 3}
      propertyPath: m_LocalEulerAnglesHint.z
      value: 0
      objectReference: {fileID: 0}
    m_RemovedComponents: []
    m_RemovedGameObjects: []
    m_AddedGameObjects: []
    m_AddedComponents: []
  m_SourcePrefab: {fileID: 100100000, guid: e5222312bdc1e604fa54c10c33b13cc9, type: 3}
