%YAML 1.1
%TAG !u! tag:unity3d.com,2011:
--- !u!1 &8561827610223106674
GameObject:
  m_ObjectHideFlags: 0
  m_CorrespondingSourceObject: {fileID: 0}
  m_PrefabInstance: {fileID: 0}
  m_PrefabAsset: {fileID: 0}
  serializedVersion: 6
  m_Component:
  - component: {fileID: 1968988762013277128}
  - component: {fileID: 9054429898417203881}
  - component: {fileID: 8956889401818554129}
  m_Layer: 0
  m_Name: MultiTileFirst
  m_TagString: Untagged
  m_Icon: {fileID: 0}
  m_NavMeshLayer: 0
  m_StaticEditorFlags: 0
  m_IsActive: 1
--- !u!224 &1968988762013277128
RectTransform:
  m_ObjectHideFlags: 0
  m_CorrespondingSourceObject: {fileID: 0}
  m_PrefabInstance: {fileID: 0}
  m_PrefabAsset: {fileID: 0}
  m_GameObject: {fileID: 8561827610223106674}
  m_LocalRotation: {x: 0, y: 0, z: 0, w: 1}
  m_LocalPosition: {x: 0, y: 0, z: 0}
  m_LocalScale: {x: 1, y: 1, z: 1}
  m_ConstrainProportionsScale: 0
  m_Children:
  - {fileID: 5464634098566654037}
  m_Father: {fileID: 0}
  m_LocalEulerAnglesHint: {x: 0, y: 0, z: 0}
  m_AnchorMin: {x: 0, y: 0.5}
  m_AnchorMax: {x: 0, y: 0.5}
  m_AnchoredPosition: {x: 0, y: 0}
  m_SizeDelta: {x: 70, y: 38}
  m_Pivot: {x: 0.5, y: 0.5}
--- !u!222 &9054429898417203881
CanvasRenderer:
  m_ObjectHideFlags: 0
  m_CorrespondingSourceObject: {fileID: 0}
  m_PrefabInstance: {fileID: 0}
  m_PrefabAsset: {fileID: 0}
  m_GameObject: {fileID: 8561827610223106674}
  m_CullTransparentMesh: 1
--- !u!114 &8956889401818554129
MonoBehaviour:
  m_ObjectHideFlags: 0
  m_CorrespondingSourceObject: {fileID: 0}
  m_PrefabInstance: {fileID: 0}
  m_PrefabAsset: {fileID: 0}
  m_GameObject: {fileID: 8561827610223106674}
  m_Enabled: 1
  m_EditorHideFlags: 0
  m_Script: {fileID: 11500000, guid: fe87c0e1cc204ed48ad3b37840f39efc, type: 3}
  m_Name: 
  m_EditorClassIdentifier: 
  m_Material: {fileID: 0}
  m_Color: {r: 1, g: 1, b: 1, a: 1}
  m_RaycastTarget: 1
  m_RaycastPadding: {x: 0, y: 0, z: 0, w: 0}
  m_Maskable: 1
  m_OnCullStateChanged:
    m_PersistentCalls:
      m_Calls: []
  m_Sprite: {fileID: 21300000, guid: 7ac377e567bc4054c875ef7fe57a8d20, type: 3}
  m_Type: 0
  m_PreserveAspect: 1
  m_FillCenter: 1
  m_FillMethod: 4
  m_FillAmount: 1
  m_FillClockwise: 1
  m_FillOrigin: 0
  m_UseSpriteMesh: 0
  m_PixelsPerUnitMultiplier: 1
--- !u!1001 &1925742616912806190
PrefabInstance:
  m_ObjectHideFlags: 0
  serializedVersion: 2
  m_Modification:
    serializedVersion: 3
    m_TransformParent: {fileID: 1968988762013277128}
    m_Modifications:
    - target: {fileID: 823631767156613262, guid: 733c2bcb090d7b242820d208d4d11114, type: 3}
      propertyPath: m_text
      value: x8.55
      objectReference: {fileID: 0}
    - target: {fileID: 823631767156613262, guid: 733c2bcb090d7b242820d208d4d11114, type: 3}
      propertyPath: m_fontSize
      value: 26.05
      objectReference: {fileID: 0}
    - target: {fileID: 823631767156613262, guid: 733c2bcb090d7b242820d208d4d11114, type: 3}
      propertyPath: m_margin.w
      value: 0
      objectReference: {fileID: 0}
    - target: {fileID: 823631767156613262, guid: 733c2bcb090d7b242820d208d4d11114, type: 3}
      propertyPath: m_margin.x
      value: 3
      objectReference: {fileID: 0}
    - target: {fileID: 823631767156613262, guid: 733c2bcb090d7b242820d208d4d11114, type: 3}
      propertyPath: m_margin.z
      value: 3
      objectReference: {fileID: 0}
    - target: {fileID: 823631767156613262, guid: 733c2bcb090d7b242820d208d4d11114, type: 3}
      propertyPath: m_fontSizeMax
      value: 30
      objectReference: {fileID: 0}
    - target: {fileID: 823631767156613262, guid: 733c2bcb090d7b242820d208d4d11114, type: 3}
      propertyPath: m_fontSizeMin
      value: 14
      objectReference: {fileID: 0}
    - target: {fileID: 823631767156613262, guid: 733c2bcb090d7b242820d208d4d11114, type: 3}
      propertyPath: m_HorizontalAlignment
      value: 2
      objectReference: {fileID: 0}
    - target: {fileID: 5868150145805592955, guid: 733c2bcb090d7b242820d208d4d11114, type: 3}
      propertyPath: m_Pivot.x
      value: 0.5
      objectReference: {fileID: 0}
    - target: {fileID: 5868150145805592955, guid: 733c2bcb090d7b242820d208d4d11114, type: 3}
      propertyPath: m_Pivot.y
      value: 0.5
      objectReference: {fileID: 0}
    - target: {fileID: 5868150145805592955, guid: 733c2bcb090d7b242820d208d4d11114, type: 3}
      propertyPath: m_AnchorMax.x
      value: 0.5
      objectReference: {fileID: 0}
    - target: {fileID: 5868150145805592955, guid: 733c2bcb090d7b242820d208d4d11114, type: 3}
      propertyPath: m_AnchorMax.y
      value: 0.5
      objectReference: {fileID: 0}
    - target: {fileID: 5868150145805592955, guid: 733c2bcb090d7b242820d208d4d11114, type: 3}
      propertyPath: m_AnchorMin.x
      value: 0.5
      objectReference: {fileID: 0}
    - target: {fileID: 5868150145805592955, guid: 733c2bcb090d7b242820d208d4d11114, type: 3}
      propertyPath: m_AnchorMin.y
      value: 0.5
      objectReference: {fileID: 0}
    - target: {fileID: 5868150145805592955, guid: 733c2bcb090d7b242820d208d4d11114, type: 3}
      propertyPath: m_SizeDelta.x
      value: 70
      objectReference: {fileID: 0}
    - target: {fileID: 5868150145805592955, guid: 733c2bcb090d7b242820d208d4d11114, type: 3}
      propertyPath: m_SizeDelta.y
      value: 38
      objectReference: {fileID: 0}
    - target: {fileID: 5868150145805592955, guid: 733c2bcb090d7b242820d208d4d11114, type: 3}
      propertyPath: m_LocalPosition.x
      value: 0
      objectReference: {fileID: 0}
    - target: {fileID: 5868150145805592955, guid: 733c2bcb090d7b242820d208d4d11114, type: 3}
      propertyPath: m_LocalPosition.y
      value: 0
      objectReference: {fileID: 0}
    - target: {fileID: 5868150145805592955, guid: 733c2bcb090d7b242820d208d4d11114, type: 3}
      propertyPath: m_LocalPosition.z
      value: 0
      objectReference: {fileID: 0}
    - target: {fileID: 5868150145805592955, guid: 733c2bcb090d7b242820d208d4d11114, type: 3}
      propertyPath: m_LocalRotation.w
      value: 1
      objectReference: {fileID: 0}
    - target: {fileID: 5868150145805592955, guid: 733c2bcb090d7b242820d208d4d11114, type: 3}
      propertyPath: m_LocalRotation.x
      value: -0
      objectReference: {fileID: 0}
    - target: {fileID: 5868150145805592955, guid: 733c2bcb090d7b242820d208d4d11114, type: 3}
      propertyPath: m_LocalRotation.y
      value: -0
      objectReference: {fileID: 0}
    - target: {fileID: 5868150145805592955, guid: 733c2bcb090d7b242820d208d4d11114, type: 3}
      propertyPath: m_LocalRotation.z
      value: -0
      objectReference: {fileID: 0}
    - target: {fileID: 5868150145805592955, guid: 733c2bcb090d7b242820d208d4d11114, type: 3}
      propertyPath: m_AnchoredPosition.x
      value: 0
      objectReference: {fileID: 0}
    - target: {fileID: 5868150145805592955, guid: 733c2bcb090d7b242820d208d4d11114, type: 3}
      propertyPath: m_AnchoredPosition.y
      value: 0
      objectReference: {fileID: 0}
    - target: {fileID: 5868150145805592955, guid: 733c2bcb090d7b242820d208d4d11114, type: 3}
      propertyPath: m_LocalEulerAnglesHint.x
      value: 0
      objectReference: {fileID: 0}
    - target: {fileID: 5868150145805592955, guid: 733c2bcb090d7b242820d208d4d11114, type: 3}
      propertyPath: m_LocalEulerAnglesHint.y
      value: 0
      objectReference: {fileID: 0}
    - target: {fileID: 5868150145805592955, guid: 733c2bcb090d7b242820d208d4d11114, type: 3}
      propertyPath: m_LocalEulerAnglesHint.z
      value: 0
      objectReference: {fileID: 0}
    - target: {fileID: 7356708571434953137, guid: 733c2bcb090d7b242820d208d4d11114, type: 3}
      propertyPath: m_Name
      value: CoinsAmountText
      objectReference: {fileID: 0}
    m_RemovedComponents: []
    m_RemovedGameObjects: []
    m_AddedGameObjects: []
    m_AddedComponents: []
  m_SourcePrefab: {fileID: 100100000, guid: 733c2bcb090d7b242820d208d4d11114, type: 3}
--- !u!224 &5464634098566654037 stripped
RectTransform:
  m_CorrespondingSourceObject: {fileID: 5868150145805592955, guid: 733c2bcb090d7b242820d208d4d11114, type: 3}
  m_PrefabInstance: {fileID: 1925742616912806190}
  m_PrefabAsset: {fileID: 0}
