%YAML 1.1
%TAG !u! tag:unity3d.com,2011:
--- !u!1001 &9123107279881837718
PrefabInstance:
  m_ObjectHideFlags: 0
  serializedVersion: 2
  m_Modification:
    serializedVersion: 3
    m_TransformParent: {fileID: 0}
    m_Modifications:
    - target: {fileID: 3215387555297035703, guid: a6c80dfb721433a4380df4e2e98da0e0, type: 3}
      propertyPath: m_Name
      value: CellBackground5
      objectReference: {fileID: 0}
    - target: {fileID: 4963433888598145973, guid: a6c80dfb721433a4380df4e2e98da0e0, type: 3}
      propertyPath: m_Pivot.x
      value: 0.5
      objectReference: {fileID: 0}
    - target: {fileID: 4963433888598145973, guid: a6c80dfb721433a4380df4e2e98da0e0, type: 3}
      propertyPath: m_Pivot.y
      value: 0.5
      objectReference: {fileID: 0}
    - target: {fileID: 4963433888598145973, guid: a6c80dfb721433a4380df4e2e98da0e0, type: 3}
      propertyPath: m_AnchorMax.x
      value: 0.5
      objectReference: {fileID: 0}
    - target: {fileID: 4963433888598145973, guid: a6c80dfb721433a4380df4e2e98da0e0, type: 3}
      propertyPath: m_AnchorMax.y
      value: 0.5
      objectReference: {fileID: 0}
    - target: {fileID: 4963433888598145973, guid: a6c80dfb721433a4380df4e2e98da0e0, type: 3}
      propertyPath: m_AnchorMin.x
      value: 0.5
      objectReference: {fileID: 0}
    - target: {fileID: 4963433888598145973, guid: a6c80dfb721433a4380df4e2e98da0e0, type: 3}
      propertyPath: m_AnchorMin.y
      value: 0.5
      objectReference: {fileID: 0}
    - target: {fileID: 4963433888598145973, guid: a6c80dfb721433a4380df4e2e98da0e0, type: 3}
      propertyPath: m_SizeDelta.x
      value: 60
      objectReference: {fileID: 0}
    - target: {fileID: 4963433888598145973, guid: a6c80dfb721433a4380df4e2e98da0e0, type: 3}
      propertyPath: m_SizeDelta.y
      value: 60
      objectReference: {fileID: 0}
    - target: {fileID: 4963433888598145973, guid: a6c80dfb721433a4380df4e2e98da0e0, type: 3}
      propertyPath: m_LocalPosition.x
      value: 0
      objectReference: {fileID: 0}
    - target: {fileID: 4963433888598145973, guid: a6c80dfb721433a4380df4e2e98da0e0, type: 3}
      propertyPath: m_LocalPosition.y
      value: 0
      objectReference: {fileID: 0}
    - target: {fileID: 4963433888598145973, guid: a6c80dfb721433a4380df4e2e98da0e0, type: 3}
      propertyPath: m_LocalPosition.z
      value: 0
      objectReference: {fileID: 0}
    - target: {fileID: 4963433888598145973, guid: a6c80dfb721433a4380df4e2e98da0e0, type: 3}
      propertyPath: m_LocalRotation.w
      value: 1
      objectReference: {fileID: 0}
    - target: {fileID: 4963433888598145973, guid: a6c80dfb721433a4380df4e2e98da0e0, type: 3}
      propertyPath: m_LocalRotation.x
      value: 0
      objectReference: {fileID: 0}
    - target: {fileID: 4963433888598145973, guid: a6c80dfb721433a4380df4e2e98da0e0, type: 3}
      propertyPath: m_LocalRotation.y
      value: 0
      objectReference: {fileID: 0}
    - target: {fileID: 4963433888598145973, guid: a6c80dfb721433a4380df4e2e98da0e0, type: 3}
      propertyPath: m_LocalRotation.z
      value: 0
      objectReference: {fileID: 0}
    - target: {fileID: 4963433888598145973, guid: a6c80dfb721433a4380df4e2e98da0e0, type: 3}
      propertyPath: m_AnchoredPosition.x
      value: 0
      objectReference: {fileID: 0}
    - target: {fileID: 4963433888598145973, guid: a6c80dfb721433a4380df4e2e98da0e0, type: 3}
      propertyPath: m_AnchoredPosition.y
      value: 0
      objectReference: {fileID: 0}
    - target: {fileID: 4963433888598145973, guid: a6c80dfb721433a4380df4e2e98da0e0, type: 3}
      propertyPath: m_LocalEulerAnglesHint.x
      value: 0
      objectReference: {fileID: 0}
    - target: {fileID: 4963433888598145973, guid: a6c80dfb721433a4380df4e2e98da0e0, type: 3}
      propertyPath: m_LocalEulerAnglesHint.y
      value: 0
      objectReference: {fileID: 0}
    - target: {fileID: 4963433888598145973, guid: a6c80dfb721433a4380df4e2e98da0e0, type: 3}
      propertyPath: m_LocalEulerAnglesHint.z
      value: 0
      objectReference: {fileID: 0}
    - target: {fileID: 7003947957484160015, guid: a6c80dfb721433a4380df4e2e98da0e0, type: 3}
      propertyPath: m_Sprite
      value: 
      objectReference: {fileID: 21300000, guid: cf8a5113fab75474da84f5df86a00ef0, type: 3}
    m_RemovedComponents: []
    m_RemovedGameObjects: []
    m_AddedGameObjects: []
    m_AddedComponents: []
  m_SourcePrefab: {fileID: 100100000, guid: a6c80dfb721433a4380df4e2e98da0e0, type: 3}
