%YAML 1.1
%TAG !u! tag:unity3d.com,2011:
--- !u!114 &11400000
MonoBehaviour:
  m_ObjectHideFlags: 0
  m_CorrespondingSourceObject: {fileID: 0}
  m_PrefabInstance: {fileID: 0}
  m_PrefabAsset: {fileID: 0}
  m_GameObject: {fileID: 0}
  m_Enabled: 1
  m_EditorHideFlags: 0
  m_Script: {fileID: 11500000, guid: bbb281ee3bf0b054c82ac2347e9e782c, type: 3}
  m_Name: Default Local Group
  m_EditorClassIdentifier: 
  m_GroupName: Default Local Group
  m_Data:
    m_SerializedData: []
  m_GUID: f105504d98e6fbb46aa45b64aff9ba33
  m_SerializeEntries: []
  m_ReadOnly: 0
  m_Settings: {fileID: 11400000, guid: 457b7eb51c2dac14983fc2a43f225502, type: 2}
  m_SchemaSet:
    m_Schemas:
    - {fileID: 11400000, guid: ac1e2350f2662b34596702e0a6ecb632, type: 2}
    - {fileID: 11400000, guid: cb65c3f277365694a82ca2b341843992, type: 2}
