%YAML 1.1
%TAG !u! tag:unity3d.com,2011:
--- !u!114 &11400000
MonoBehaviour:
  m_ObjectHideFlags: 0
  m_CorrespondingSourceObject: {fileID: 0}
  m_PrefabInstance: {fileID: 0}
  m_PrefabAsset: {fileID: 0}
  m_GameObject: {fileID: 0}
  m_Enabled: 1
  m_EditorHideFlags: 0
  m_Script: {fileID: 11500000, guid: bbb281ee3bf0b054c82ac2347e9e782c, type: 3}
  m_Name: Localization-Locales
  m_EditorClassIdentifier: 
  m_GroupName: Localization-Locales
  m_Data:
    m_SerializedData: []
  m_GUID: 7dc566af54b3c2e499adc4974471024e
  m_SerializeEntries:
  - m_GUID: 3f9e4bca769aa194191a150367aa36ce
    m_Address: Russian (Russia) (ru-RU)
    m_ReadOnly: 1
    m_SerializedLabels:
    - Locale
    FlaggedDuringContentUpdateRestriction: 0
  - m_GUID: f347c64af7a97c94090013c6365eed03
    m_Address: English (en)
    m_ReadOnly: 1
    m_SerializedLabels:
    - Locale
    FlaggedDuringContentUpdateRestriction: 0
  m_ReadOnly: 1
  m_Settings: {fileID: 11400000, guid: 457b7eb51c2dac14983fc2a43f225502, type: 2}
  m_SchemaSet:
    m_Schemas:
    - {fileID: 11400000, guid: 5e6d75dfd3b76ec4784e2d3dcab2fe79, type: 2}
    - {fileID: 11400000, guid: 2a5d2df754809f049bc8270bc4efb4a6, type: 2}
