%YAML 1.1
%TAG !u! tag:unity3d.com,2011:
--- !u!114 &11400000
MonoBehaviour:
  m_ObjectHideFlags: 0
  m_CorrespondingSourceObject: {fileID: 0}
  m_PrefabInstance: {fileID: 0}
  m_PrefabAsset: {fileID: 0}
  m_GameObject: {fileID: 0}
  m_Enabled: 1
  m_EditorHideFlags: 0
  m_Script: {fileID: 11500000, guid: bbb281ee3bf0b054c82ac2347e9e782c, type: 3}
  m_Name: Localization-Assets-Shared
  m_EditorClassIdentifier: 
  m_GroupName: Localization-Assets-Shared
  m_Data:
    m_SerializedData: []
  m_GUID: 41e85a26974cf1c48a1507325464e1a1
  m_SerializeEntries:
  - m_GUID: 2ddd113e07614dc4399909a6c47c7efb
    m_Address: Assets/Localization/Tables/Default/Default Shared Data.asset
    m_ReadOnly: 1
    m_SerializedLabels: []
    FlaggedDuringContentUpdateRestriction: 0
  - m_GUID: 724295ecca24ea24482f12fee582daab
    m_Address: Assets/Localization/Tables/Sapper Shared Data.asset
    m_ReadOnly: 1
    m_SerializedLabels: []
    FlaggedDuringContentUpdateRestriction: 0
  - m_GUID: 33c34250592c669418ce82a61e7e81b8
    m_Address: Assets/Localization/Tables/Ticket/Ticket Shared Data.asset
    m_ReadOnly: 1
    m_SerializedLabels: []
    FlaggedDuringContentUpdateRestriction: 0
  - m_GUID: dfc17d0089aadc24fbc657f748f1d3b0
    m_Address: Assets/Localization/Tables/Wheel/Wheel Shared Data.asset
    m_ReadOnly: 1
    m_SerializedLabels: []
    FlaggedDuringContentUpdateRestriction: 0
  - m_GUID: 68b0e08439b4d8d4099977da3671e652
    m_Address: Assets/Localization/Tables/Slots/Slots Shared Data.asset
    m_ReadOnly: 1
    m_SerializedLabels: []
    FlaggedDuringContentUpdateRestriction: 0
  m_ReadOnly: 1
  m_Settings: {fileID: 11400000, guid: 457b7eb51c2dac14983fc2a43f225502, type: 2}
  m_SchemaSet:
    m_Schemas:
    - {fileID: 11400000, guid: be7a4dedf4a2dd44198a7feb2bcae5a6, type: 2}
    - {fileID: 11400000, guid: d11344e54e4d1b54e8817979a7e84133, type: 2}
