%YAML 1.1
%TAG !u! tag:unity3d.com,2011:
--- !u!1001 &2448694725116414264
PrefabInstance:
  m_ObjectHideFlags: 0
  serializedVersion: 2
  m_Modification:
    serializedVersion: 3
    m_TransformParent: {fileID: 0}
    m_Modifications:
    - target: {fileID: 48542486158069065, guid: 323c47a2e1b26664b82ece9749200df1, type: 3}
      propertyPath: m_Sprite
      value: 
      objectReference: {fileID: 21300000, guid: 56661e512c817d9469210cc778f8d67e, type: 3}
    - target: {fileID: 3885763253778575100, guid: 323c47a2e1b26664b82ece9749200df1, type: 3}
      propertyPath: m_Name
      value: Item3
      objectReference: {fileID: 0}
    - target: {fileID: 5555973367032930513, guid: 323c47a2e1b26664b82ece9749200df1, type: 3}
      propertyPath: m_Pivot.x
      value: 0.5
      objectReference: {fileID: 0}
    - target: {fileID: 5555973367032930513, guid: 323c47a2e1b26664b82ece9749200df1, type: 3}
      propertyPath: m_Pivot.y
      value: 0.5
      objectReference: {fileID: 0}
    - target: {fileID: 5555973367032930513, guid: 323c47a2e1b26664b82ece9749200df1, type: 3}
      propertyPath: m_AnchorMax.x
      value: 0.5
      objectReference: {fileID: 0}
    - target: {fileID: 5555973367032930513, guid: 323c47a2e1b26664b82ece9749200df1, type: 3}
      propertyPath: m_AnchorMax.y
      value: 0.5
      objectReference: {fileID: 0}
    - target: {fileID: 5555973367032930513, guid: 323c47a2e1b26664b82ece9749200df1, type: 3}
      propertyPath: m_AnchorMin.x
      value: 0.5
      objectReference: {fileID: 0}
    - target: {fileID: 5555973367032930513, guid: 323c47a2e1b26664b82ece9749200df1, type: 3}
      propertyPath: m_AnchorMin.y
      value: 0.5
      objectReference: {fileID: 0}
    - target: {fileID: 5555973367032930513, guid: 323c47a2e1b26664b82ece9749200df1, type: 3}
      propertyPath: m_SizeDelta.x
      value: 172
      objectReference: {fileID: 0}
    - target: {fileID: 5555973367032930513, guid: 323c47a2e1b26664b82ece9749200df1, type: 3}
      propertyPath: m_SizeDelta.y
      value: 133
      objectReference: {fileID: 0}
    - target: {fileID: 5555973367032930513, guid: 323c47a2e1b26664b82ece9749200df1, type: 3}
      propertyPath: m_LocalPosition.x
      value: 0
      objectReference: {fileID: 0}
    - target: {fileID: 5555973367032930513, guid: 323c47a2e1b26664b82ece9749200df1, type: 3}
      propertyPath: m_LocalPosition.y
      value: 0
      objectReference: {fileID: 0}
    - target: {fileID: 5555973367032930513, guid: 323c47a2e1b26664b82ece9749200df1, type: 3}
      propertyPath: m_LocalPosition.z
      value: 0
      objectReference: {fileID: 0}
    - target: {fileID: 5555973367032930513, guid: 323c47a2e1b26664b82ece9749200df1, type: 3}
      propertyPath: m_LocalRotation.w
      value: 1
      objectReference: {fileID: 0}
    - target: {fileID: 5555973367032930513, guid: 323c47a2e1b26664b82ece9749200df1, type: 3}
      propertyPath: m_LocalRotation.x
      value: -0
      objectReference: {fileID: 0}
    - target: {fileID: 5555973367032930513, guid: 323c47a2e1b26664b82ece9749200df1, type: 3}
      propertyPath: m_LocalRotation.y
      value: -0
      objectReference: {fileID: 0}
    - target: {fileID: 5555973367032930513, guid: 323c47a2e1b26664b82ece9749200df1, type: 3}
      propertyPath: m_LocalRotation.z
      value: -0
      objectReference: {fileID: 0}
    - target: {fileID: 5555973367032930513, guid: 323c47a2e1b26664b82ece9749200df1, type: 3}
      propertyPath: m_AnchoredPosition.x
      value: 0
      objectReference: {fileID: 0}
    - target: {fileID: 5555973367032930513, guid: 323c47a2e1b26664b82ece9749200df1, type: 3}
      propertyPath: m_AnchoredPosition.y
      value: 0
      objectReference: {fileID: 0}
    - target: {fileID: 5555973367032930513, guid: 323c47a2e1b26664b82ece9749200df1, type: 3}
      propertyPath: m_LocalEulerAnglesHint.x
      value: 0
      objectReference: {fileID: 0}
    - target: {fileID: 5555973367032930513, guid: 323c47a2e1b26664b82ece9749200df1, type: 3}
      propertyPath: m_LocalEulerAnglesHint.y
      value: 0
      objectReference: {fileID: 0}
    - target: {fileID: 5555973367032930513, guid: 323c47a2e1b26664b82ece9749200df1, type: 3}
      propertyPath: m_LocalEulerAnglesHint.z
      value: 0
      objectReference: {fileID: 0}
    - target: {fileID: 6221696872740194502, guid: 323c47a2e1b26664b82ece9749200df1, type: 3}
      propertyPath: m_SizeDelta.x
      value: 170
      objectReference: {fileID: 0}
    - target: {fileID: 6221696872740194502, guid: 323c47a2e1b26664b82ece9749200df1, type: 3}
      propertyPath: m_SizeDelta.y
      value: 131
      objectReference: {fileID: 0}
    m_RemovedComponents: []
    m_RemovedGameObjects: []
    m_AddedGameObjects: []
    m_AddedComponents: []
  m_SourcePrefab: {fileID: 100100000, guid: 323c47a2e1b26664b82ece9749200df1, type: 3}
