%YAML 1.1
%TAG !u! tag:unity3d.com,2011:
--- !u!1001 &5882636447758916502
PrefabInstance:
  m_ObjectHideFlags: 0
  serializedVersion: 2
  m_Modification:
    serializedVersion: 3
    m_TransformParent: {fileID: 0}
    m_Modifications:
    - target: {fileID: 116389641363677980, guid: 94fbdd5988ea8bf4ba1b95a4699efa0f, type: 3}
      propertyPath: m_StringReference.m_TableEntryReference.m_KeyId
      value: 3159478169600
      objectReference: {fileID: 0}
    - target: {fileID: 116389641363677980, guid: 94fbdd5988ea8bf4ba1b95a4699efa0f, type: 3}
      propertyPath: m_StringReference.m_TableReference.m_TableCollectionName
      value: GUID:33c34250592c669418ce82a61e7e81b8
      objectReference: {fileID: 0}
    - target: {fileID: 151161383606159715, guid: 94fbdd5988ea8bf4ba1b95a4699efa0f, type: 3}
      propertyPath: m_SizeDelta.y
      value: 157.5088
      objectReference: {fileID: 0}
    - target: {fileID: 151161383606159715, guid: 94fbdd5988ea8bf4ba1b95a4699efa0f, type: 3}
      propertyPath: m_AnchoredPosition.y
      value: -140.56177
      objectReference: {fileID: 0}
    - target: {fileID: 160567225785658962, guid: 94fbdd5988ea8bf4ba1b95a4699efa0f, type: 3}
      propertyPath: m_AnchorMax.y
      value: 0
      objectReference: {fileID: 0}
    - target: {fileID: 160567225785658962, guid: 94fbdd5988ea8bf4ba1b95a4699efa0f, type: 3}
      propertyPath: m_AnchorMin.y
      value: 0
      objectReference: {fileID: 0}
    - target: {fileID: 160567225785658962, guid: 94fbdd5988ea8bf4ba1b95a4699efa0f, type: 3}
      propertyPath: m_AnchoredPosition.x
      value: 0
      objectReference: {fileID: 0}
    - target: {fileID: 160567225785658962, guid: 94fbdd5988ea8bf4ba1b95a4699efa0f, type: 3}
      propertyPath: m_AnchoredPosition.y
      value: 0
      objectReference: {fileID: 0}
    - target: {fileID: 335718526700676892, guid: 94fbdd5988ea8bf4ba1b95a4699efa0f, type: 3}
      propertyPath: m_StringReference.m_TableEntryReference.m_KeyId
      value: 3874619584512
      objectReference: {fileID: 0}
    - target: {fileID: 335718526700676892, guid: 94fbdd5988ea8bf4ba1b95a4699efa0f, type: 3}
      propertyPath: m_StringReference.m_TableReference.m_TableCollectionName
      value: GUID:33c34250592c669418ce82a61e7e81b8
      objectReference: {fileID: 0}
    - target: {fileID: 735941564527945477, guid: 94fbdd5988ea8bf4ba1b95a4699efa0f, type: 3}
      propertyPath: m_Sprite
      value: 
      objectReference: {fileID: 21300000, guid: 1a9c9b949bfe2ef4eae7b38cded40234, type: 3}
    - target: {fileID: 759131686796784932, guid: 94fbdd5988ea8bf4ba1b95a4699efa0f, type: 3}
      propertyPath: dotElementPrefab
      value: 
      objectReference: {fileID: 5140605598803013813, guid: 8d4c6e208ecb5904e8331e9b1310ddb7, type: 3}
    - target: {fileID: 767636093523008999, guid: 94fbdd5988ea8bf4ba1b95a4699efa0f, type: 3}
      propertyPath: m_Name
      value: WelcomePanelTicket
      objectReference: {fileID: 0}
    - target: {fileID: 1068932901505202189, guid: 94fbdd5988ea8bf4ba1b95a4699efa0f, type: 3}
      propertyPath: m_Sprite
      value: 
      objectReference: {fileID: 21300000, guid: 498429fdef0d6f1488f9021399fd4912, type: 3}
    - target: {fileID: 1187397606552060130, guid: 94fbdd5988ea8bf4ba1b95a4699efa0f, type: 3}
      propertyPath: m_AnchoredPosition.x
      value: 0
      objectReference: {fileID: 0}
    - target: {fileID: 1187397606552060130, guid: 94fbdd5988ea8bf4ba1b95a4699efa0f, type: 3}
      propertyPath: m_AnchoredPosition.y
      value: -118.100006
      objectReference: {fileID: 0}
    - target: {fileID: 1233367643613693744, guid: 94fbdd5988ea8bf4ba1b95a4699efa0f, type: 3}
      propertyPath: m_SizeDelta.x
      value: 360
      objectReference: {fileID: 0}
    - target: {fileID: 1233367643613693744, guid: 94fbdd5988ea8bf4ba1b95a4699efa0f, type: 3}
      propertyPath: m_SizeDelta.y
      value: 254
      objectReference: {fileID: 0}
    - target: {fileID: 1233367643613693744, guid: 94fbdd5988ea8bf4ba1b95a4699efa0f, type: 3}
      propertyPath: m_AnchoredPosition.x
      value: 0
      objectReference: {fileID: 0}
    - target: {fileID: 1233367643613693744, guid: 94fbdd5988ea8bf4ba1b95a4699efa0f, type: 3}
      propertyPath: m_AnchoredPosition.y
      value: 39
      objectReference: {fileID: 0}
    - target: {fileID: 1535641911617504482, guid: 94fbdd5988ea8bf4ba1b95a4699efa0f, type: 3}
      propertyPath: m_AnchoredPosition.x
      value: 2.5617676
      objectReference: {fileID: 0}
    - target: {fileID: 1535641911617504482, guid: 94fbdd5988ea8bf4ba1b95a4699efa0f, type: 3}
      propertyPath: m_AnchoredPosition.y
      value: -94.68399
      objectReference: {fileID: 0}
    - target: {fileID: 1557507531824059641, guid: 94fbdd5988ea8bf4ba1b95a4699efa0f, type: 3}
      propertyPath: m_text
      value: "\u0412\u0430\u0448\u0430 \u0446\u0435\u043B\u044C - \u043E\u0442\u043A\u0440\u044B\u0432\u0430\u0442\u044C
        \u044F\u0447\u0435\u0439\u043A\u0438 \u0441 \u043C\u0430\u043A\u0441\u0438\u043C\u0430\u043B\u044C\u043D\u044B\u043C\u0438
        \u043C\u043D\u043E\u0436\u0438\u0442\u0435\u043B\u044F\u043C\u0438 \u0438
        \u0438\u0437\u0431\u0435\u0433\u0430\u0442\u044C \u043D\u0443\u043B\u044F."
      objectReference: {fileID: 0}
    - target: {fileID: 1557507531824059641, guid: 94fbdd5988ea8bf4ba1b95a4699efa0f, type: 3}
      propertyPath: m_fontSize
      value: 16.8
      objectReference: {fileID: 0}
    - target: {fileID: 1586767340305551704, guid: 94fbdd5988ea8bf4ba1b95a4699efa0f, type: 3}
      propertyPath: m_text
      value: "\u0412\u0432\u0435\u0434\u0438\u0442\u0435 \u0441\u0443\u043C\u043C\u0443
        \u0441\u0442\u0430\u0432\u043A\u0438 \u0438 \u0432\u044B\u0431\u0435\u0440\u0438\u0442\u0435
        \u043A\u043E\u043B\u0438\u0447\u0435\u0441\u0442\u0432\u043E \u043F\u043E\u043F\u044B\u0442\u043E\u043A.
        \L\u041D\u0430\u0436\u043C\u0438\u0442\u0435 \u043A\u043D\u043E\u043F\u043A\u0443
        \u201C\u0418\u0433\u0440\u0430\u0442\u044C\u201D, \u0447\u0442\u043E\u0431\u044B
        \u0441\u0434\u0435\u043B\u0430\u0442\u044C \u0441\u0442\u0430\u0432\u043A\u0443
        \u0438 \u043D\u0430\u0447\u0430\u0442\u044C \u0438\u0433\u0440\u0443."
      objectReference: {fileID: 0}
    - target: {fileID: 1586767340305551704, guid: 94fbdd5988ea8bf4ba1b95a4699efa0f, type: 3}
      propertyPath: m_margin.w
      value: 0.68814087
      objectReference: {fileID: 0}
    - target: {fileID: 1642623743932477085, guid: 94fbdd5988ea8bf4ba1b95a4699efa0f, type: 3}
      propertyPath: m_StringReference.m_TableEntryReference.m_KeyId
      value: 3641034600448
      objectReference: {fileID: 0}
    - target: {fileID: 1642623743932477085, guid: 94fbdd5988ea8bf4ba1b95a4699efa0f, type: 3}
      propertyPath: m_StringReference.m_TableReference.m_TableCollectionName
      value: GUID:33c34250592c669418ce82a61e7e81b8
      objectReference: {fileID: 0}
    - target: {fileID: 1821917053109481574, guid: 94fbdd5988ea8bf4ba1b95a4699efa0f, type: 3}
      propertyPath: m_SizeDelta.x
      value: 360
      objectReference: {fileID: 0}
    - target: {fileID: 1821917053109481574, guid: 94fbdd5988ea8bf4ba1b95a4699efa0f, type: 3}
      propertyPath: m_SizeDelta.y
      value: 296
      objectReference: {fileID: 0}
    - target: {fileID: 1821917053109481574, guid: 94fbdd5988ea8bf4ba1b95a4699efa0f, type: 3}
      propertyPath: m_AnchoredPosition.x
      value: 0
      objectReference: {fileID: 0}
    - target: {fileID: 1821917053109481574, guid: 94fbdd5988ea8bf4ba1b95a4699efa0f, type: 3}
      propertyPath: m_AnchoredPosition.y
      value: 60
      objectReference: {fileID: 0}
    - target: {fileID: 1955145499050970967, guid: 94fbdd5988ea8bf4ba1b95a4699efa0f, type: 3}
      propertyPath: m_SizeDelta.x
      value: 360
      objectReference: {fileID: 0}
    - target: {fileID: 1955145499050970967, guid: 94fbdd5988ea8bf4ba1b95a4699efa0f, type: 3}
      propertyPath: m_SizeDelta.y
      value: 276
      objectReference: {fileID: 0}
    - target: {fileID: 1955145499050970967, guid: 94fbdd5988ea8bf4ba1b95a4699efa0f, type: 3}
      propertyPath: m_AnchoredPosition.y
      value: 50
      objectReference: {fileID: 0}
    - target: {fileID: 2171892399017956633, guid: 94fbdd5988ea8bf4ba1b95a4699efa0f, type: 3}
      propertyPath: m_Sprite
      value: 
      objectReference: {fileID: 21300000, guid: 14dddd36a245ffb4b9dfcd99930ef147, type: 3}
    - target: {fileID: 2270531349954174646, guid: 94fbdd5988ea8bf4ba1b95a4699efa0f, type: 3}
      propertyPath: m_AnchoredPosition.x
      value: 0
      objectReference: {fileID: 0}
    - target: {fileID: 2270531349954174646, guid: 94fbdd5988ea8bf4ba1b95a4699efa0f, type: 3}
      propertyPath: m_AnchoredPosition.y
      value: -168.1
      objectReference: {fileID: 0}
    - target: {fileID: 3013985286861058939, guid: 94fbdd5988ea8bf4ba1b95a4699efa0f, type: 3}
      propertyPath: m_IsActive
      value: 0
      objectReference: {fileID: 0}
    - target: {fileID: 3105352319191600430, guid: 94fbdd5988ea8bf4ba1b95a4699efa0f, type: 3}
      propertyPath: m_SizeDelta.y
      value: 106.5877
      objectReference: {fileID: 0}
    - target: {fileID: 3105352319191600430, guid: 94fbdd5988ea8bf4ba1b95a4699efa0f, type: 3}
      propertyPath: m_AnchoredPosition.y
      value: -208.68582
      objectReference: {fileID: 0}
    - target: {fileID: 4322520280685746050, guid: 94fbdd5988ea8bf4ba1b95a4699efa0f, type: 3}
      propertyPath: m_SizeDelta.x
      value: 360
      objectReference: {fileID: 0}
    - target: {fileID: 4322520280685746050, guid: 94fbdd5988ea8bf4ba1b95a4699efa0f, type: 3}
      propertyPath: m_SizeDelta.y
      value: 207
      objectReference: {fileID: 0}
    - target: {fileID: 4322520280685746050, guid: 94fbdd5988ea8bf4ba1b95a4699efa0f, type: 3}
      propertyPath: m_AnchoredPosition.y
      value: 15.5
      objectReference: {fileID: 0}
    - target: {fileID: 4503873148583497149, guid: 94fbdd5988ea8bf4ba1b95a4699efa0f, type: 3}
      propertyPath: m_SizeDelta.x
      value: 385
      objectReference: {fileID: 0}
    - target: {fileID: 4503873148583497149, guid: 94fbdd5988ea8bf4ba1b95a4699efa0f, type: 3}
      propertyPath: m_SizeDelta.y
      value: 268
      objectReference: {fileID: 0}
    - target: {fileID: 4503873148583497149, guid: 94fbdd5988ea8bf4ba1b95a4699efa0f, type: 3}
      propertyPath: m_AnchoredPosition.x
      value: 0
      objectReference: {fileID: 0}
    - target: {fileID: 4503873148583497149, guid: 94fbdd5988ea8bf4ba1b95a4699efa0f, type: 3}
      propertyPath: m_AnchoredPosition.y
      value: 74
      objectReference: {fileID: 0}
    - target: {fileID: 4596662938323151568, guid: 94fbdd5988ea8bf4ba1b95a4699efa0f, type: 3}
      propertyPath: m_StringReference.m_TableEntryReference.m_KeyId
      value: 3770034614272
      objectReference: {fileID: 0}
    - target: {fileID: 4596662938323151568, guid: 94fbdd5988ea8bf4ba1b95a4699efa0f, type: 3}
      propertyPath: m_StringReference.m_TableReference.m_TableCollectionName
      value: GUID:33c34250592c669418ce82a61e7e81b8
      objectReference: {fileID: 0}
    - target: {fileID: 5364268954548370713, guid: 94fbdd5988ea8bf4ba1b95a4699efa0f, type: 3}
      propertyPath: m_Sprite
      value: 
      objectReference: {fileID: 21300000, guid: e20023410fffeaf4da7ace9bef7af2bb, type: 3}
    - target: {fileID: 5427928528306168019, guid: 94fbdd5988ea8bf4ba1b95a4699efa0f, type: 3}
      propertyPath: m_Sprite
      value: 
      objectReference: {fileID: 21300000, guid: 45a5574451efca042804d2232311e973, type: 3}
    - target: {fileID: 5428659652649542675, guid: 94fbdd5988ea8bf4ba1b95a4699efa0f, type: 3}
      propertyPath: m_IsActive
      value: 0
      objectReference: {fileID: 0}
    - target: {fileID: 5477696220835371181, guid: 94fbdd5988ea8bf4ba1b95a4699efa0f, type: 3}
      propertyPath: m_SizeDelta.y
      value: 108.6522
      objectReference: {fileID: 0}
    - target: {fileID: 5631831638337712974, guid: 94fbdd5988ea8bf4ba1b95a4699efa0f, type: 3}
      propertyPath: m_IsActive
      value: 0
      objectReference: {fileID: 0}
    - target: {fileID: 5736630539241168140, guid: 94fbdd5988ea8bf4ba1b95a4699efa0f, type: 3}
      propertyPath: m_SizeDelta.y
      value: 57.427
      objectReference: {fileID: 0}
    - target: {fileID: 5736630539241168140, guid: 94fbdd5988ea8bf4ba1b95a4699efa0f, type: 3}
      propertyPath: m_AnchoredPosition.x
      value: -2.255127
      objectReference: {fileID: 0}
    - target: {fileID: 5736630539241168140, guid: 94fbdd5988ea8bf4ba1b95a4699efa0f, type: 3}
      propertyPath: m_AnchoredPosition.y
      value: -261.28787
      objectReference: {fileID: 0}
    - target: {fileID: 5869993370504168208, guid: 94fbdd5988ea8bf4ba1b95a4699efa0f, type: 3}
      propertyPath: m_Sprite
      value: 
      objectReference: {fileID: 21300000, guid: c89acac93cba0bf4390cacd0ea700ecf, type: 3}
    - target: {fileID: 6348091645436936342, guid: 94fbdd5988ea8bf4ba1b95a4699efa0f, type: 3}
      propertyPath: m_text
      value: "\u0412 \u043A\u0430\u0436\u0434\u043E\u0439 \u044F\u0447\u0435\u0439\u043A\u0435
        \u043D\u0430\u0445\u043E\u0434\u0438\u0442\u0441\u044F \u043C\u043D\u043E\u0436\u0438\u0442\u0435\u043B\u044C,
        \u043E\u0442 0 \u0434\u043E 25. \u041A\u0430\u0436\u0434\u043E\u0435 \u043E\u0442\u043A\u0440\u044B\u0442\u043E\u0435
        \u0447\u0438\u0441\u043B\u043E, \u0443\u043C\u043D\u043E\u0436\u0430\u0435\u0442\u0441\u044F
        \u043D\u0430 \u0441\u0442\u0430\u0432\u043A\u0443. \u0418\u0433\u0440\u0430
        \u0437\u0430\u0432\u0435\u0440\u0448\u0430\u0435\u0442\u0441\u044F, \u043A\u043E\u0433\u0434\u0430
        \u0438\u0441\u0447\u0435\u0440\u043F\u0430\u043D\u044B \u043A\u043E\u043B\u0438\u0447\u0435\u0441\u0442\u0432\u043E
        \u043F\u043E\u043F\u044B\u0442\u043E\u043A."
      objectReference: {fileID: 0}
    - target: {fileID: 6348091645436936342, guid: 94fbdd5988ea8bf4ba1b95a4699efa0f, type: 3}
      propertyPath: m_fontSize
      value: 17.75
      objectReference: {fileID: 0}
    - target: {fileID: 6348091645436936342, guid: 94fbdd5988ea8bf4ba1b95a4699efa0f, type: 3}
      propertyPath: m_margin.w
      value: 65.37152
      objectReference: {fileID: 0}
    - target: {fileID: 6401412074060775251, guid: 94fbdd5988ea8bf4ba1b95a4699efa0f, type: 3}
      propertyPath: m_StringReference.m_TableEntryReference.m_KeyId
      value: 3485157486592
      objectReference: {fileID: 0}
    - target: {fileID: 6401412074060775251, guid: 94fbdd5988ea8bf4ba1b95a4699efa0f, type: 3}
      propertyPath: m_StringReference.m_TableReference.m_TableCollectionName
      value: GUID:33c34250592c669418ce82a61e7e81b8
      objectReference: {fileID: 0}
    - target: {fileID: 6448383602786511785, guid: 94fbdd5988ea8bf4ba1b95a4699efa0f, type: 3}
      propertyPath: m_IsActive
      value: 1
      objectReference: {fileID: 0}
    - target: {fileID: 6579291734995188466, guid: 94fbdd5988ea8bf4ba1b95a4699efa0f, type: 3}
      propertyPath: m_StringReference.m_TableEntryReference.m_KeyId
      value: 3330123427840
      objectReference: {fileID: 0}
    - target: {fileID: 6579291734995188466, guid: 94fbdd5988ea8bf4ba1b95a4699efa0f, type: 3}
      propertyPath: m_StringReference.m_TableReference.m_TableCollectionName
      value: GUID:33c34250592c669418ce82a61e7e81b8
      objectReference: {fileID: 0}
    - target: {fileID: 6692965390422093977, guid: 94fbdd5988ea8bf4ba1b95a4699efa0f, type: 3}
      propertyPath: m_IsActive
      value: 0
      objectReference: {fileID: 0}
    - target: {fileID: 6740260746690567510, guid: 94fbdd5988ea8bf4ba1b95a4699efa0f, type: 3}
      propertyPath: m_Sprite
      value: 
      objectReference: {fileID: 21300000, guid: e4121daa548d35e44b9289d31177daf0, type: 3}
    - target: {fileID: 8060620608656815506, guid: 94fbdd5988ea8bf4ba1b95a4699efa0f, type: 3}
      propertyPath: m_AnchorMax.y
      value: 0
      objectReference: {fileID: 0}
    - target: {fileID: 8060620608656815506, guid: 94fbdd5988ea8bf4ba1b95a4699efa0f, type: 3}
      propertyPath: m_AnchorMin.y
      value: 0
      objectReference: {fileID: 0}
    - target: {fileID: 8060620608656815506, guid: 94fbdd5988ea8bf4ba1b95a4699efa0f, type: 3}
      propertyPath: m_AnchoredPosition.x
      value: 0
      objectReference: {fileID: 0}
    - target: {fileID: 8060620608656815506, guid: 94fbdd5988ea8bf4ba1b95a4699efa0f, type: 3}
      propertyPath: m_AnchoredPosition.y
      value: 0
      objectReference: {fileID: 0}
    - target: {fileID: 8149710712447894747, guid: 94fbdd5988ea8bf4ba1b95a4699efa0f, type: 3}
      propertyPath: m_text
      value: "\u0412\u044B \u0432\u0441\u0435\u0433\u0434\u0430 \u043C\u043E\u0436\u0435\u0442\u0435
        \u043F\u0440\u043E\u0432\u0435\u0440\u0438\u0442\u044C \u0447\u0435\u0441\u0442\u043D\u043E\u0441\u0442\u044C
        \u0433\u0435\u043D\u0435\u0440\u0438\u0440\u0443\u0435\u043C\u044B\u0445
        \u0438\u0441\u0445\u043E\u0434\u043E\u0432. \L\u0412 \u0438\u0441\u0442\u043E\u0440\u0438\u0438
        \u0441\u0442\u0430\u0432\u043E\u043A \u0445\u0440\u0430\u043D\u044F\u0442\u0441\u044F
        \u0432\u0441\u0435 \u0434\u0430\u043D\u043D\u044B\u0435 \u0437\u0430\u0432\u0435\u0440\u0448\u0435\u043D\u043D\u044B\u0445
        \u0438\u0433\u0440. \u041F\u0440\u0430\u0432\u0438\u043B\u044C\u043D\u043E\u0441\u0442\u044C
        \u0445\u0435\u0448\u0438\u0440\u043E\u0432\u0430\u043D\u0438\u044F \u043C\u043E\u0436\u043D\u043E
        \u043F\u0440\u043E\u0432\u0435\u0440\u0438\u0442\u044C \u0432 \u043B\u044E\u0431\u043E\u043C
        \u043E\u043D\u043B\u0430\u0439\u043D \u0445\u044D\u0448-\u0433\u0435\u043D\u0435\u0440\u0430\u0442\u043E\u0440\u0435."
      objectReference: {fileID: 0}
    - target: {fileID: 8149710712447894747, guid: 94fbdd5988ea8bf4ba1b95a4699efa0f, type: 3}
      propertyPath: m_fontSize
      value: 15.5
      objectReference: {fileID: 0}
    - target: {fileID: 8386093971426060733, guid: 94fbdd5988ea8bf4ba1b95a4699efa0f, type: 3}
      propertyPath: m_Sprite
      value: 
      objectReference: {fileID: 21300000, guid: bcb9279ef86b4bc4591ec35e299be94c, type: 3}
    - target: {fileID: 8546369124079031088, guid: 94fbdd5988ea8bf4ba1b95a4699efa0f, type: 3}
      propertyPath: m_AnchorMax.y
      value: 0
      objectReference: {fileID: 0}
    - target: {fileID: 8546369124079031088, guid: 94fbdd5988ea8bf4ba1b95a4699efa0f, type: 3}
      propertyPath: m_AnchorMin.y
      value: 0
      objectReference: {fileID: 0}
    - target: {fileID: 8546369124079031088, guid: 94fbdd5988ea8bf4ba1b95a4699efa0f, type: 3}
      propertyPath: m_AnchoredPosition.x
      value: 0
      objectReference: {fileID: 0}
    - target: {fileID: 8546369124079031088, guid: 94fbdd5988ea8bf4ba1b95a4699efa0f, type: 3}
      propertyPath: m_AnchoredPosition.y
      value: 0
      objectReference: {fileID: 0}
    - target: {fileID: 8606858231011829078, guid: 94fbdd5988ea8bf4ba1b95a4699efa0f, type: 3}
      propertyPath: m_Pivot.x
      value: 0.5
      objectReference: {fileID: 0}
    - target: {fileID: 8606858231011829078, guid: 94fbdd5988ea8bf4ba1b95a4699efa0f, type: 3}
      propertyPath: m_Pivot.y
      value: 0.5
      objectReference: {fileID: 0}
    - target: {fileID: 8606858231011829078, guid: 94fbdd5988ea8bf4ba1b95a4699efa0f, type: 3}
      propertyPath: m_AnchorMax.x
      value: 1
      objectReference: {fileID: 0}
    - target: {fileID: 8606858231011829078, guid: 94fbdd5988ea8bf4ba1b95a4699efa0f, type: 3}
      propertyPath: m_AnchorMax.y
      value: 1
      objectReference: {fileID: 0}
    - target: {fileID: 8606858231011829078, guid: 94fbdd5988ea8bf4ba1b95a4699efa0f, type: 3}
      propertyPath: m_AnchorMin.x
      value: 0
      objectReference: {fileID: 0}
    - target: {fileID: 8606858231011829078, guid: 94fbdd5988ea8bf4ba1b95a4699efa0f, type: 3}
      propertyPath: m_AnchorMin.y
      value: 0
      objectReference: {fileID: 0}
    - target: {fileID: 8606858231011829078, guid: 94fbdd5988ea8bf4ba1b95a4699efa0f, type: 3}
      propertyPath: m_SizeDelta.x
      value: 0
      objectReference: {fileID: 0}
    - target: {fileID: 8606858231011829078, guid: 94fbdd5988ea8bf4ba1b95a4699efa0f, type: 3}
      propertyPath: m_SizeDelta.y
      value: 0
      objectReference: {fileID: 0}
    - target: {fileID: 8606858231011829078, guid: 94fbdd5988ea8bf4ba1b95a4699efa0f, type: 3}
      propertyPath: m_LocalPosition.x
      value: 0
      objectReference: {fileID: 0}
    - target: {fileID: 8606858231011829078, guid: 94fbdd5988ea8bf4ba1b95a4699efa0f, type: 3}
      propertyPath: m_LocalPosition.y
      value: 0
      objectReference: {fileID: 0}
    - target: {fileID: 8606858231011829078, guid: 94fbdd5988ea8bf4ba1b95a4699efa0f, type: 3}
      propertyPath: m_LocalPosition.z
      value: 0
      objectReference: {fileID: 0}
    - target: {fileID: 8606858231011829078, guid: 94fbdd5988ea8bf4ba1b95a4699efa0f, type: 3}
      propertyPath: m_LocalRotation.w
      value: 1
      objectReference: {fileID: 0}
    - target: {fileID: 8606858231011829078, guid: 94fbdd5988ea8bf4ba1b95a4699efa0f, type: 3}
      propertyPath: m_LocalRotation.x
      value: 0
      objectReference: {fileID: 0}
    - target: {fileID: 8606858231011829078, guid: 94fbdd5988ea8bf4ba1b95a4699efa0f, type: 3}
      propertyPath: m_LocalRotation.y
      value: 0
      objectReference: {fileID: 0}
    - target: {fileID: 8606858231011829078, guid: 94fbdd5988ea8bf4ba1b95a4699efa0f, type: 3}
      propertyPath: m_LocalRotation.z
      value: 0
      objectReference: {fileID: 0}
    - target: {fileID: 8606858231011829078, guid: 94fbdd5988ea8bf4ba1b95a4699efa0f, type: 3}
      propertyPath: m_AnchoredPosition.x
      value: 0
      objectReference: {fileID: 0}
    - target: {fileID: 8606858231011829078, guid: 94fbdd5988ea8bf4ba1b95a4699efa0f, type: 3}
      propertyPath: m_AnchoredPosition.y
      value: 0
      objectReference: {fileID: 0}
    - target: {fileID: 8606858231011829078, guid: 94fbdd5988ea8bf4ba1b95a4699efa0f, type: 3}
      propertyPath: m_LocalEulerAnglesHint.x
      value: 0
      objectReference: {fileID: 0}
    - target: {fileID: 8606858231011829078, guid: 94fbdd5988ea8bf4ba1b95a4699efa0f, type: 3}
      propertyPath: m_LocalEulerAnglesHint.y
      value: 0
      objectReference: {fileID: 0}
    - target: {fileID: 8606858231011829078, guid: 94fbdd5988ea8bf4ba1b95a4699efa0f, type: 3}
      propertyPath: m_LocalEulerAnglesHint.z
      value: 0
      objectReference: {fileID: 0}
    - target: {fileID: 8643388301764544681, guid: 94fbdd5988ea8bf4ba1b95a4699efa0f, type: 3}
      propertyPath: m_AnchorMax.y
      value: 0
      objectReference: {fileID: 0}
    - target: {fileID: 8643388301764544681, guid: 94fbdd5988ea8bf4ba1b95a4699efa0f, type: 3}
      propertyPath: m_AnchorMin.y
      value: 0
      objectReference: {fileID: 0}
    - target: {fileID: 8643388301764544681, guid: 94fbdd5988ea8bf4ba1b95a4699efa0f, type: 3}
      propertyPath: m_AnchoredPosition.x
      value: 0
      objectReference: {fileID: 0}
    - target: {fileID: 8643388301764544681, guid: 94fbdd5988ea8bf4ba1b95a4699efa0f, type: 3}
      propertyPath: m_AnchoredPosition.y
      value: 0
      objectReference: {fileID: 0}
    - target: {fileID: 8898213389358318989, guid: 94fbdd5988ea8bf4ba1b95a4699efa0f, type: 3}
      propertyPath: m_Sprite
      value: 
      objectReference: {fileID: 21300000, guid: 5e7c169dd2fcac64fbd17379dd7e1ea9, type: 3}
    m_RemovedComponents: []
    m_RemovedGameObjects: []
    m_AddedGameObjects: []
    m_AddedComponents: []
  m_SourcePrefab: {fileID: 100100000, guid: 94fbdd5988ea8bf4ba1b95a4699efa0f, type: 3}
